// Jest Snapshot v1, https://goo.gl/fbAQLP

exports[`CardView matches the snapshot 1`] = `
<WithStyles(ForwardRef(Card))
  className="makeStyles-card-1 undefined"
>
  <WithStyles(ForwardRef(CardHeader))
    title="title"
  />
  <WithStyles(ForwardRef(CardContent))
    className="makeStyles-cardContent-2 undefined"
  />
</WithStyles(ForwardRef(Card))>
`;
